^XA
^PW800                           
^LH0,0
^FO20,20^A0N10,50^FD47^FS
^FO60,30^A0N10,30^FD - MIE^FS
^FO120,30^A0N10,30^FD - 76^FS
^FO20,70^A0N10,40^FDSANTA HELENA^FS
^FO20,170^A0N10,40^FDROSA^FS
^FO270,30^A0N10,30^FD BL: 2^FS
^FO20,120^A0N10,40^FDCAT. TOX:N/A^FS
^FO20,220^A0N10,40^FDWXACALCIO^FS
^FO20,260^A0N10,50^FD1100 GR^FS
^PQ1
^XZ
^XA
^PW800                           
^LH0,0
^FO20,20^A0N10,50^FD47^FS
^FO60,30^A0N10,30^FD - MIE^FS
^FO120,30^A0N10,30^FD - 75^FS
^FO20,70^A0N10,40^FDSANTA HELENA^FS
^FO20,170^A0N10,40^FDROSA^FS
^FO270,30^A0N10,30^FD BL: 2^FS
^FO20,120^A0N10,40^FDCAT. TOX:N/A^FS
^FO20,220^A0N10,40^FDWXACALCIO^FS
^FO20,260^A0N10,50^FD950 GR^FS
^PQ1
^XZ
^XA
^PW800                           
^LH0,0
^FO20,20^A0N10,50^FD47^FS
^FO60,30^A0N10,30^FD - MIE^FS
^FO120,30^A0N10,30^FD - 74^FS
^FO20,70^A0N10,40^FDSANTA HELENA^FS
^FO20,170^A0N10,40^FDROSA^FS
^FO270,30^A0N10,30^FD BL: 9^FS
^FO20,120^A0N10,40^FDCAT. TOX:II^FS
^FO20,220^A0N10,40^FDVERTIMEC^FS
^FO20,260^A0N10,50^FD311 GR^FS
^PQ1
^XZ
^XA
^PW800                           
^LH0,0
^FO20,20^A0N10,50^FD47^FS
^FO60,30^A0N10,30^FD - MIE^FS
^FO120,30^A0N10,30^FD - 73^FS
^FO20,70^A0N10,40^FDSANTA HELENA^FS
^FO20,170^A0N10,40^FDROSA^FS
^FO270,30^A0N10,30^FD BL: 9^FS
^FO20,120^A0N10,40^FDCAT. TOX:II^FS
^FO20,220^A0N10,40^FDVERTIMEC^FS
^FO20,260^A0N10,50^FD219 GR^FS
^PQ1
^XZ
^XA
^PW800                           
^LH0,0
^FO20,20^A0N10,50^FD47^FS
^FO60,30^A0N10,30^FD - MIE^FS
^FO120,30^A0N10,30^FD - 72^FS
^FO20,70^A0N10,40^FDALMER^FS
^FO20,170^A0N10,40^FDROSA^FS
^FO270,30^A0N10,30^FD BL: 9^FS
^FO20,120^A0N10,40^FDCAT. TOX:II^FS
^FO20,220^A0N10,40^FDVERTIMEC^FS
^FO20,260^A0N10,50^FD182 GR^FS
^PQ1
^XZ
^XA
^PW800                           
^LH0,0
^FO20,20^A0N10,50^FD47^FS
^FO60,30^A0N10,30^FD - MIE^FS
^FO120,30^A0N10,30^FD - 71^FS
^FO20,70^A0N10,40^FDALMER^FS
^FO20,170^A0N10,40^FDROSA^FS
^FO270,30^A0N10,30^FD BL: 7^FS
^FO20,120^A0N10,40^FDCAT. TOX:II^FS
^FO20,220^A0N10,40^FDVERTIMEC^FS
^FO20,260^A0N10,50^FD184 GR^FS
^PQ1
^XZ
^XA
^PW800                           
^LH0,0
^FO20,20^A0N10,50^FD47^FS
^FO60,30^A0N10,30^FD - MIE^FS
^FO120,30^A0N10,30^FD - 70^FS
^FO20,70^A0N10,40^FDALMER^FS
^FO20,170^A0N10,40^FDROSA^FS
^FO270,30^A0N10,30^FD BL: 3^FS
^FO20,120^A0N10,40^FDCAT. TOX:II^FS
^FO20,220^A0N10,40^FDVERTIMEC^FS
^FO20,260^A0N10,50^FD311 GR^FS
^PQ1
^XZ
^XA
^PW800                           
^LH0,0
^FO20,20^A0N10,50^FD47^FS
^FO60,30^A0N10,30^FD - MIE^FS
^FO120,30^A0N10,30^FD - 69^FS
^FO20,70^A0N10,40^FDALMER^FS
^FO20,170^A0N10,40^FDROSA^FS
^FO270,30^A0N10,30^FD BL: 3^FS
^FO20,120^A0N10,40^FDCAT. TOX:II^FS
^FO20,220^A0N10,40^FDVERTIMEC^FS
^FO20,260^A0N10,50^FD65 GR^FS
^PQ1
^XZ
^XA
^PW800                           
^LH0,0
^FO20,20^A0N10,50^FD47^FS
^FO60,30^A0N10,30^FD - MIE^FS
^FO120,30^A0N10,30^FD - 68^FS
^FO20,70^A0N10,40^FDALMER^FS
^FO20,170^A0N10,40^FDROSA^FS
^FO270,30^A0N10,30^FD BL: 17^FS
^FO20,120^A0N10,40^FDCAT. TOX:II^FS
^FO20,220^A0N10,40^FDVERTIMEC^FS
^FO20,260^A0N10,50^FD62 GR^FS
^PQ1
^XZ
^XA
^PW800                           
^LH0,0
^FO20,20^A0N10,50^FD47^FS
^FO60,30^A0N10,30^FD - MIE^FS
^FO120,30^A0N10,30^FD - 67^FS
^FO20,70^A0N10,40^FDALMER^FS
^FO20,170^A0N10,40^FDROSA^FS
^FO270,30^A0N10,30^FD BL: 15^FS
^FO20,120^A0N10,40^FDCAT. TOX:II^FS
^FO20,220^A0N10,40^FDVERTIMEC^FS
^FO20,260^A0N10,50^FD112 GR^FS
^PQ1
^XZ
^XA
^PW800                           
^LH0,0
^FO20,20^A0N10,50^FD47^FS
^FO60,30^A0N10,30^FD - MIE^FS
^FO120,30^A0N10,30^FD - 66^FS
^FO20,70^A0N10,40^FDALMER^FS
^FO20,170^A0N10,40^FDROSA^FS
^FO270,30^A0N10,30^FD BL: 13^FS
^FO20,120^A0N10,40^FDCAT. TOX:II^FS
^FO20,220^A0N10,40^FDVERTIMEC^FS
^FO20,260^A0N10,50^FD57 GR^FS
^PQ1
^XZ
^XA
^PW800                           
^LH0,0
^FO20,20^A0N10,50^FD47^FS
^FO60,30^A0N10,30^FD - MIE^FS
^FO120,30^A0N10,30^FD - 65^FS
^FO20,70^A0N10,40^FDSANTA HELENA^FS
^FO20,170^A0N10,40^FDROSA^FS
^FO270,30^A0N10,30^FD BL: 10^FS
^FO20,120^A0N10,40^FDCAT. TOX:II^FS
^FO20,220^A0N10,40^FDVERTIMEC^FS
^FO20,260^A0N10,50^FD311 GR^FS
^PQ1
^XZ
^XA
^PW800                           
^LH0,0
^FO20,20^A0N10,50^FD47^FS
^FO60,30^A0N10,30^FD - MIE^FS
^FO120,30^A0N10,30^FD - 64^FS
^FO20,70^A0N10,40^FDSANTA HELENA^FS
^FO20,170^A0N10,40^FDROSA^FS
^FO270,30^A0N10,30^FD BL: 10^FS
^FO20,120^A0N10,40^FDCAT. TOX:II^FS
^FO20,220^A0N10,40^FDVERTIMEC^FS
^FO20,260^A0N10,50^FD249 GR^FS
^PQ1
^XZ
^XA
^PW800                           
^LH0,0
^FO20,20^A0N10,50^FD47^FS
^FO60,30^A0N10,30^FD - MIE^FS
^FO120,30^A0N10,30^FD - 63^FS
^FO20,70^A0N10,40^FDSANTA HELENA^FS
^FO20,170^A0N10,40^FDROSA^FS
^FO270,30^A0N10,30^FD BL: 7^FS
^FO20,120^A0N10,40^FDCAT. TOX:N.A.^FS
^FO20,220^A0N10,40^FDUNIKS^FS
^FO20,260^A0N10,50^FD1350 GR^FS
^PQ1
^XZ
^XA
^PW800                           
^LH0,0
^FO20,20^A0N10,50^FD47^FS
^FO60,30^A0N10,30^FD - MIE^FS
^FO120,30^A0N10,30^FD - 62^FS
^FO20,70^A0N10,40^FDSANTA HELENA^FS
^FO20,170^A0N10,40^FDROSA^FS
^FO270,30^A0N10,30^FD BL: 7^FS
^FO20,120^A0N10,40^FDCAT. TOX:N.A.^FS
^FO20,220^A0N10,40^FDUNIKS^FS
^FO20,260^A0N10,50^FD1350 GR^FS
^PQ1
^XZ
^XA
^PW800                           
^LH0,0
^FO20,20^A0N10,50^FD47^FS
^FO60,30^A0N10,30^FD - MIE^FS
^FO120,30^A0N10,30^FD - 61^FS
^FO20,70^A0N10,40^FDSANTA HELENA^FS
^FO20,170^A0N10,40^FDROSA^FS
^FO270,30^A0N10,30^FD BL: 7^FS
^FO20,120^A0N10,40^FDCAT. TOX:N.A.^FS
^FO20,220^A0N10,40^FDUNIKS^FS
^FO20,260^A0N10,50^FD65 GR^FS
^PQ1
^XZ
^XA
^PW800                           
^LH0,0
^FO20,20^A0N10,50^FD47^FS
^FO60,30^A0N10,30^FD - MIE^FS
^FO120,30^A0N10,30^FD - 60^FS
^FO20,70^A0N10,40^FDSANTA HELENA^FS
^FO20,170^A0N10,40^FDROSA^FS
^FO270,30^A0N10,30^FD BL: 2^FS
^FO20,120^A0N10,40^FDCAT. TOX:N.A.^FS
^FO20,220^A0N10,40^FDUNIKS^FS
^FO20,260^A0N10,50^FD1350 GR^FS
^PQ1
^XZ
^XA
^PW800                           
^LH0,0
^FO20,20^A0N10,50^FD47^FS
^FO60,30^A0N10,30^FD - MIE^FS
^FO120,30^A0N10,30^FD - 59^FS
^FO20,70^A0N10,40^FDSANTA HELENA^FS
^FO20,170^A0N10,40^FDROSA^FS
^FO270,30^A0N10,30^FD BL: 2^FS
^FO20,120^A0N10,40^FDCAT. TOX:N.A.^FS
^FO20,220^A0N10,40^FDUNIKS^FS
^FO20,260^A0N10,50^FD1166 GR^FS
^PQ1
^XZ
^XA
^PW800                           
^LH0,0
^FO20,20^A0N10,50^FD47^FS
^FO60,30^A0N10,30^FD - MIE^FS
^FO120,30^A0N10,30^FD - 58^FS
^FO20,70^A0N10,40^FDSANTA HELENA^FS
^FO20,170^A0N10,40^FDROSA^FS
^FO270,30^A0N10,30^FD BL: 0^FS
^FO20,120^A0N10,40^FDCAT. TOX:N.A.^FS
^FO20,220^A0N10,40^FDUNIKS^FS
^FO20,260^A0N10,50^FD1350 GR^FS
^PQ1
^XZ
^XA
^PW800                           
^LH0,0
^FO20,20^A0N10,50^FD47^FS
^FO60,30^A0N10,30^FD - MIE^FS
^FO120,30^A0N10,30^FD - 57^FS
^FO20,70^A0N10,40^FDSANTA HELENA^FS
^FO20,170^A0N10,40^FDROSA^FS
^FO270,30^A0N10,30^FD BL: 0^FS
^FO20,120^A0N10,40^FDCAT. TOX:N.A.^FS
^FO20,220^A0N10,40^FDUNIKS^FS
^FO20,260^A0N10,50^FD135 GR^FS
^PQ1
^XZ
^XA
^PW800                           
^LH0,0
^FO20,20^A0N10,50^FD47^FS
^FO60,30^A0N10,30^FD - MIE^FS
^FO120,30^A0N10,30^FD - 56^FS
^FO20,70^A0N10,40^FDSANTA HELENA^FS
^FO20,170^A0N10,40^FDROSA^FS
^FO270,30^A0N10,30^FD BL: 7^FS
^FO20,120^A0N10,40^FDCAT. TOX:N/A^FS
^FO20,220^A0N10,40^FDSTARZYME^FS
^FO20,260^A0N10,50^FD1100 GR^FS
^PQ1
^XZ
^XA
^PW800                           
^LH0,0
^FO20,20^A0N10,50^FD47^FS
^FO60,30^A0N10,30^FD - MIE^FS
^FO120,30^A0N10,30^FD - 55^FS
^FO20,70^A0N10,40^FDSANTA HELENA^FS
^FO20,170^A0N10,40^FDROSA^FS
^FO270,30^A0N10,30^FD BL: 7^FS
^FO20,120^A0N10,40^FDCAT. TOX:N/A^FS
^FO20,220^A0N10,40^FDSTARZYME^FS
^FO20,260^A0N10,50^FD1100 GR^FS
^PQ1
^XZ
^XA
^PW800                           
^LH0,0
^FO20,20^A0N10,50^FD47^FS
^FO60,30^A0N10,30^FD - MIE^FS
^FO120,30^A0N10,30^FD - 54^FS
^FO20,70^A0N10,40^FDSANTA HELENA^FS
^FO20,170^A0N10,40^FDROSA^FS
^FO270,30^A0N10,30^FD BL: 7^FS
^FO20,120^A0N10,40^FDCAT. TOX:N/A^FS
^FO20,220^A0N10,40^FDSTARZYME^FS
^FO20,260^A0N10,50^FD53 GR^FS
^PQ1
^XZ
^XA
^PW800                           
^LH0,0
^FO20,20^A0N10,50^FD47^FS
^FO60,30^A0N10,30^FD - MIE^FS
^FO120,30^A0N10,30^FD - 53^FS
^FO20,70^A0N10,40^FDSANTA HELENA^FS
^FO20,170^A0N10,40^FDROSA^FS
^FO270,30^A0N10,30^FD BL: 1A^FS
^FO20,120^A0N10,40^FDCAT. TOX:N/A^FS
^FO20,220^A0N10,40^FDSTARZYME^FS
^FO20,260^A0N10,50^FD484 GR^FS
^PQ1
^XZ
^XA
^PW800                           
^LH0,0
^FO20,20^A0N10,50^FD47^FS
^FO60,30^A0N10,30^FD - MIE^FS
^FO120,30^A0N10,30^FD - 52^FS
^FO20,70^A0N10,40^FDALMER^FS
^FO20,170^A0N10,40^FDROSA^FS
^FO270,30^A0N10,30^FD BL: 9^FS
^FO20,120^A0N10,40^FDCAT. TOX:III^FS
^FO20,220^A0N10,40^FDPROGRO^FS
^FO20,260^A0N10,50^FD584 GR^FS
^PQ1
^XZ
^XA
^PW800                           
^LH0,0
^FO20,20^A0N10,50^FD47^FS
^FO60,30^A0N10,30^FD - MIE^FS
^FO120,30^A0N10,30^FD - 51^FS
^FO20,70^A0N10,40^FDALMER^FS
^FO20,170^A0N10,40^FDROSA^FS
^FO270,30^A0N10,30^FD BL: 7^FS
^FO20,120^A0N10,40^FDCAT. TOX:III^FS
^FO20,220^A0N10,40^FDPROGRO^FS
^FO20,260^A0N10,50^FD592 GR^FS
^PQ1
^XZ
^XA
^PW800                           
^LH0,0
^FO20,20^A0N10,50^FD47^FS
^FO60,30^A0N10,30^FD - MIE^FS
^FO120,30^A0N10,30^FD - 50^FS
^FO20,70^A0N10,40^FDALMER^FS
^FO20,170^A0N10,40^FDROSA^FS
^FO270,30^A0N10,30^FD BL: 3^FS
^FO20,120^A0N10,40^FDCAT. TOX:III^FS
^FO20,220^A0N10,40^FDPROGRO^FS
^FO20,260^A0N10,50^FD1000 GR^FS
^PQ1
^XZ
^XA
^PW800                           
^LH0,0
^FO20,20^A0N10,50^FD47^FS
^FO60,30^A0N10,30^FD - MIE^FS
^FO120,30^A0N10,30^FD - 49^FS
^FO20,70^A0N10,40^FDALMER^FS
^FO20,170^A0N10,40^FDROSA^FS
^FO270,30^A0N10,30^FD BL: 3^FS
^FO20,120^A0N10,40^FDCAT. TOX:III^FS
^FO20,220^A0N10,40^FDPROGRO^FS
^FO20,260^A0N10,50^FD208 GR^FS
^PQ1
^XZ
^XA
^PW800                           
^LH0,0
^FO20,20^A0N10,50^FD47^FS
^FO60,30^A0N10,30^FD - MIE^FS
^FO120,30^A0N10,30^FD - 48^FS
^FO20,70^A0N10,40^FDALMER^FS
^FO20,170^A0N10,40^FDROSA^FS
^FO270,30^A0N10,30^FD BL: 17^FS
^FO20,120^A0N10,40^FDCAT. TOX:III^FS
^FO20,220^A0N10,40^FDPROGRO^FS
^FO20,260^A0N10,50^FD200 GR^FS
^PQ1
^XZ
^XA
^PW800                           
^LH0,0
^FO20,20^A0N10,50^FD47^FS
^FO60,30^A0N10,30^FD - MIE^FS
^FO120,30^A0N10,30^FD - 47^FS
^FO20,70^A0N10,40^FDALMER^FS
^FO20,170^A0N10,40^FDROSA^FS
^FO270,30^A0N10,30^FD BL: 15^FS
^FO20,120^A0N10,40^FDCAT. TOX:III^FS
^FO20,220^A0N10,40^FDPROGRO^FS
^FO20,260^A0N10,50^FD360 GR^FS
^PQ1
^XZ
^XA
^PW800                           
^LH0,0
^FO20,20^A0N10,50^FD47^FS
^FO60,30^A0N10,30^FD - MIE^FS
^FO120,30^A0N10,30^FD - 46^FS
^FO20,70^A0N10,40^FDALMER^FS
^FO20,170^A0N10,40^FDROSA^FS
^FO270,30^A0N10,30^FD BL: 13^FS
^FO20,120^A0N10,40^FDCAT. TOX:III^FS
^FO20,220^A0N10,40^FDPROGRO^FS
^FO20,260^A0N10,50^FD184 GR^FS
^PQ1
^XZ
^XA
^PW800                           
^LH0,0
^FO20,20^A0N10,50^FD47^FS
^FO60,30^A0N10,30^FD - MIE^FS
^FO120,30^A0N10,30^FD - 45^FS
^FO20,70^A0N10,40^FDSANTA HELENA^FS
^FO20,170^A0N10,40^FDROSA^FS
^FO270,30^A0N10,30^FD BL: 7^FS
^FO20,120^A0N10,40^FDCAT. TOX:III^FS
^FO20,220^A0N10,40^FDPROFAST^FS
^FO20,260^A0N10,50^FD1000 GR^FS
^PQ1
^XZ
^XA
^PW800                           
^LH0,0
^FO20,20^A0N10,50^FD47^FS
^FO60,30^A0N10,30^FD - MIE^FS
^FO120,30^A0N10,30^FD - 44^FS
^FO20,70^A0N10,40^FDSANTA HELENA^FS
^FO20,170^A0N10,40^FDROSA^FS
^FO270,30^A0N10,30^FD BL: 7^FS
^FO20,120^A0N10,40^FDCAT. TOX:III^FS
^FO20,220^A0N10,40^FDPROFAST^FS
^FO20,260^A0N10,50^FD1000 GR^FS
^PQ1
^XZ
^XA
^PW800                           
^LH0,0
^FO20,20^A0N10,50^FD47^FS
^FO60,30^A0N10,30^FD - MIE^FS
^FO120,30^A0N10,30^FD - 43^FS
^FO20,70^A0N10,40^FDSANTA HELENA^FS
^FO20,170^A0N10,40^FDROSA^FS
^FO270,30^A0N10,30^FD BL: 7^FS
^FO20,120^A0N10,40^FDCAT. TOX:III^FS
^FO20,220^A0N10,40^FDPROFAST^FS
^FO20,260^A0N10,50^FD48 GR^FS
^PQ1
^XZ
^XA
^PW800                           
^LH0,0
^FO20,20^A0N10,50^FD47^FS
^FO60,30^A0N10,30^FD - MIE^FS
^FO120,30^A0N10,30^FD - 42^FS
^FO20,70^A0N10,40^FDSANTA HELENA^FS
^FO20,170^A0N10,40^FDROSA^FS
^FO270,30^A0N10,30^FD BL: 2^FS
^FO20,120^A0N10,40^FDCAT. TOX:III^FS
^FO20,220^A0N10,40^FDPROFAST^FS
^FO20,260^A0N10,50^FD1000 GR^FS
^PQ1
^XZ
^XA
^PW800                           
^LH0,0
^FO20,20^A0N10,50^FD47^FS
^FO60,30^A0N10,30^FD - MIE^FS
^FO120,30^A0N10,30^FD - 41^FS
^FO20,70^A0N10,40^FDSANTA HELENA^FS
^FO20,170^A0N10,40^FDROSA^FS
^FO270,30^A0N10,30^FD BL: 2^FS
^FO20,120^A0N10,40^FDCAT. TOX:III^FS
^FO20,220^A0N10,40^FDPROFAST^FS
^FO20,260^A0N10,50^FD864 GR^FS
^PQ1
^XZ
^XA
^PW800                           
^LH0,0
^FO20,20^A0N10,50^FD47^FS
^FO60,30^A0N10,30^FD - MIE^FS
^FO120,30^A0N10,30^FD - 40^FS
^FO20,70^A0N10,40^FDSANTA HELENA^FS
^FO20,170^A0N10,40^FDROSA^FS
^FO270,30^A0N10,30^FD BL: 0^FS
^FO20,120^A0N10,40^FDCAT. TOX:III^FS
^FO20,220^A0N10,40^FDPROFAST^FS
^FO20,260^A0N10,50^FD1000 GR^FS
^PQ1
^XZ
^XA
^PW800                           
^LH0,0
^FO20,20^A0N10,50^FD47^FS
^FO60,30^A0N10,30^FD - MIE^FS
^FO120,30^A0N10,30^FD - 39^FS
^FO20,70^A0N10,40^FDSANTA HELENA^FS
^FO20,170^A0N10,40^FDROSA^FS
^FO270,30^A0N10,30^FD BL: 0^FS
^FO20,120^A0N10,40^FDCAT. TOX:III^FS
^FO20,220^A0N10,40^FDPROFAST^FS
^FO20,260^A0N10,50^FD100 GR^FS
^PQ1
^XZ
^XA
^PW800                           
^LH0,0
^FO20,20^A0N10,50^FD47^FS
^FO60,30^A0N10,30^FD - MIE^FS
^FO120,30^A0N10,30^FD - 38^FS
^FO20,70^A0N10,40^FDSANTA HELENA^FS
^FO20,170^A0N10,40^FDROSA^FS
^FO270,30^A0N10,30^FD BL: 9^FS
^FO20,120^A0N10,40^FDCAT. TOX:III^FS
^FO20,220^A0N10,40^FDMANCOL^FS
^FO20,260^A0N10,50^FD540 GR^FS
^PQ1
^XZ
^XA
^PW800                           
^LH0,0
^FO20,20^A0N10,50^FD47^FS
^FO60,30^A0N10,30^FD - MIE^FS
^FO120,30^A0N10,30^FD - 37^FS
^FO20,70^A0N10,40^FDSANTA HELENA^FS
^FO20,170^A0N10,40^FDROSA^FS
^FO270,30^A0N10,30^FD BL: 9^FS
^FO20,120^A0N10,40^FDCAT. TOX:III^FS
^FO20,220^A0N10,40^FDMANCOL^FS
^FO20,260^A0N10,50^FD380 GR^FS
^PQ1
^XZ
^XA
^PW800                           
^LH0,0
^FO20,20^A0N10,50^FD47^FS
^FO60,30^A0N10,30^FD - MIE^FS
^FO120,30^A0N10,30^FD - 36^FS
^FO20,70^A0N10,40^FDALMER^FS
^FO20,170^A0N10,40^FDROSA^FS
^FO270,30^A0N10,30^FD BL: 9^FS
^FO20,120^A0N10,40^FDCAT. TOX:III^FS
^FO20,220^A0N10,40^FDMANCOL^FS
^FO20,260^A0N10,50^FD315 GR^FS
^PQ1
^XZ
^XA
^PW800                           
^LH0,0
^FO20,20^A0N10,50^FD47^FS
^FO60,30^A0N10,30^FD - MIE^FS
^FO120,30^A0N10,30^FD - 35^FS
^FO20,70^A0N10,40^FDALMER^FS
^FO20,170^A0N10,40^FDROSA^FS
^FO270,30^A0N10,30^FD BL: 7^FS
^FO20,120^A0N10,40^FDCAT. TOX:III^FS
^FO20,220^A0N10,40^FDMANCOL^FS
^FO20,260^A0N10,50^FD320 GR^FS
^PQ1
^XZ
^XA
^PW800                           
^LH0,0
^FO20,20^A0N10,50^FD47^FS
^FO60,30^A0N10,30^FD - MIE^FS
^FO120,30^A0N10,30^FD - 34^FS
^FO20,70^A0N10,40^FDALMER^FS
^FO20,170^A0N10,40^FDROSA^FS
^FO270,30^A0N10,30^FD BL: 17^FS
^FO20,120^A0N10,40^FDCAT. TOX:III^FS
^FO20,220^A0N10,40^FDMANCOL^FS
^FO20,260^A0N10,50^FD108 GR^FS
^PQ1
^XZ
^XA
^PW800                           
^LH0,0
^FO20,20^A0N10,50^FD47^FS
^FO60,30^A0N10,30^FD - MIE^FS
^FO120,30^A0N10,30^FD - 33^FS
^FO20,70^A0N10,40^FDALMER^FS
^FO20,170^A0N10,40^FDROSA^FS
^FO270,30^A0N10,30^FD BL: 15^FS
^FO20,120^A0N10,40^FDCAT. TOX:III^FS
^FO20,220^A0N10,40^FDMANCOL^FS
^FO20,260^A0N10,50^FD194 GR^FS
^PQ1
^XZ
^XA
^PW800                           
^LH0,0
^FO20,20^A0N10,50^FD47^FS
^FO60,30^A0N10,30^FD - MIE^FS
^FO120,30^A0N10,30^FD - 32^FS
^FO20,70^A0N10,40^FDALMER^FS
^FO20,170^A0N10,40^FDROSA^FS
^FO270,30^A0N10,30^FD BL: 13^FS
^FO20,120^A0N10,40^FDCAT. TOX:III^FS
^FO20,220^A0N10,40^FDMANCOL^FS
^FO20,260^A0N10,50^FD99 GR^FS
^PQ1
^XZ
^XA
^PW800                           
^LH0,0
^FO20,20^A0N10,50^FD47^FS
^FO60,30^A0N10,30^FD - MIE^FS
^FO120,30^A0N10,30^FD - 31^FS
^FO20,70^A0N10,40^FDSANTA HELENA^FS
^FO20,170^A0N10,40^FDROSA^FS
^FO270,30^A0N10,30^FD BL: 10^FS
^FO20,120^A0N10,40^FDCAT. TOX:III^FS
^FO20,220^A0N10,40^FDMANCOL^FS
^FO20,260^A0N10,50^FD540 GR^FS
^PQ1
^XZ
^XA
^PW800                           
^LH0,0
^FO20,20^A0N10,50^FD47^FS
^FO60,30^A0N10,30^FD - MIE^FS
^FO120,30^A0N10,30^FD - 30^FS
^FO20,70^A0N10,40^FDSANTA HELENA^FS
^FO20,170^A0N10,40^FDROSA^FS
^FO270,30^A0N10,30^FD BL: 10^FS
^FO20,120^A0N10,40^FDCAT. TOX:III^FS
^FO20,220^A0N10,40^FDMANCOL^FS
^FO20,260^A0N10,50^FD432 GR^FS
^PQ1
^XZ
^XA
^PW800                           
^LH0,0
^FO20,20^A0N10,50^FD47^FS
^FO60,30^A0N10,30^FD - MIE^FS
^FO120,30^A0N10,30^FD - 29^FS
^FO20,70^A0N10,40^FDALMER^FS
^FO20,170^A0N10,40^FDROSA^FS
^FO270,30^A0N10,30^FD BL: 8^FS
^FO20,120^A0N10,40^FDCAT. TOX:N.A.^FS
^FO20,220^A0N10,40^FDLH^FS
^FO20,260^A0N10,50^FD2000 GR^FS
^PQ1
^XZ
^XA
^PW800                           
^LH0,0
^FO20,20^A0N10,50^FD47^FS
^FO60,30^A0N10,30^FD - MIE^FS
^FO120,30^A0N10,30^FD - 28^FS
^FO20,70^A0N10,40^FDALMER^FS
^FO20,170^A0N10,40^FDROSA^FS
^FO270,30^A0N10,30^FD BL: 8^FS
^FO20,120^A0N10,40^FDCAT. TOX:N.A.^FS
^FO20,220^A0N10,40^FDLH^FS
^FO20,260^A0N10,50^FD2000 GR^FS
^PQ1
^XZ
^XA
^PW800                           
^LH0,0
^FO20,20^A0N10,50^FD47^FS
^FO60,30^A0N10,30^FD - MIE^FS
^FO120,30^A0N10,30^FD - 27^FS
^FO20,70^A0N10,40^FDALMER^FS
^FO20,170^A0N10,40^FDROSA^FS
^FO270,30^A0N10,30^FD BL: 8^FS
^FO20,120^A0N10,40^FDCAT. TOX:N.A.^FS
^FO20,220^A0N10,40^FDLH^FS
^FO20,260^A0N10,50^FD110 GR^FS
^PQ1
^XZ
^XA
^PW800                           
^LH0,0
^FO20,20^A0N10,50^FD47^FS
^FO60,30^A0N10,30^FD - MIE^FS
^FO120,30^A0N10,30^FD - 26^FS
^FO20,70^A0N10,40^FDALMER^FS
^FO20,170^A0N10,40^FDROSA^FS
^FO270,30^A0N10,30^FD BL: 5^FS
^FO20,120^A0N10,40^FDCAT. TOX:N.A^FS
^FO20,220^A0N10,40^FDKNOCK OUT^FS
^FO20,260^A0N10,50^FD750 GR^FS
^PQ1
^XZ
^XA
^PW800                           
^LH0,0
^FO20,20^A0N10,50^FD47^FS
^FO60,30^A0N10,30^FD - MIE^FS
^FO120,30^A0N10,30^FD - 25^FS
^FO20,70^A0N10,40^FDALMER^FS
^FO20,170^A0N10,40^FDROSA^FS
^FO270,30^A0N10,30^FD BL: 5^FS
^FO20,120^A0N10,40^FDCAT. TOX:N.A^FS
^FO20,220^A0N10,40^FDKNOCK OUT^FS
^FO20,260^A0N10,50^FD177 GR^FS
^PQ1
^XZ
^XA
^PW800                           
^LH0,0
^FO20,20^A0N10,50^FD47^FS
^FO60,30^A0N10,30^FD - MIE^FS
^FO120,30^A0N10,30^FD - 24^FS
^FO20,70^A0N10,40^FDALMER^FS
^FO20,170^A0N10,40^FDROSA^FS
^FO270,30^A0N10,30^FD BL: 9^FS
^FO20,120^A0N10,40^FDCAT. TOX:N.A.^FS
^FO20,220^A0N10,40^FDINEX A^FS
^FO20,260^A0N10,50^FD298 GR^FS
^PQ1
^XZ
^XA
^PW800                           
^LH0,0
^FO20,20^A0N10,50^FD47^FS
^FO60,30^A0N10,30^FD - MIE^FS
^FO120,30^A0N10,30^FD - 23^FS
^FO20,70^A0N10,40^FDALMER^FS
^FO20,170^A0N10,40^FDROSA^FS
^FO270,30^A0N10,30^FD BL: 7^FS
^FO20,120^A0N10,40^FDCAT. TOX:N.A.^FS
^FO20,220^A0N10,40^FDINEX A^FS
^FO20,260^A0N10,50^FD302 GR^FS
^PQ1
^XZ
^XA
^PW800                           
^LH0,0
^FO20,20^A0N10,50^FD47^FS
^FO60,30^A0N10,30^FD - MIE^FS
^FO120,30^A0N10,30^FD - 22^FS
^FO20,70^A0N10,40^FDALMER^FS
^FO20,170^A0N10,40^FDROSA^FS
^FO270,30^A0N10,30^FD BL: 3^FS
^FO20,120^A0N10,40^FDCAT. TOX:N.A.^FS
^FO20,220^A0N10,40^FDINEX A^FS
^FO20,260^A0N10,50^FD510 GR^FS
^PQ1
^XZ
^XA
^PW800                           
^LH0,0
^FO20,20^A0N10,50^FD47^FS
^FO60,30^A0N10,30^FD - MIE^FS
^FO120,30^A0N10,30^FD - 21^FS
^FO20,70^A0N10,40^FDALMER^FS
^FO20,170^A0N10,40^FDROSA^FS
^FO270,30^A0N10,30^FD BL: 3^FS
^FO20,120^A0N10,40^FDCAT. TOX:N.A.^FS
^FO20,220^A0N10,40^FDINEX A^FS
^FO20,260^A0N10,50^FD106 GR^FS
^PQ1
^XZ
^XA
^PW800                           
^LH0,0
^FO20,20^A0N10,50^FD47^FS
^FO60,30^A0N10,30^FD - MIE^FS
^FO120,30^A0N10,30^FD - 20^FS
^FO20,70^A0N10,40^FDALMER^FS
^FO20,170^A0N10,40^FDROSA^FS
^FO270,30^A0N10,30^FD BL: 17^FS
^FO20,120^A0N10,40^FDCAT. TOX:N.A.^FS
^FO20,220^A0N10,40^FDINEX A^FS
^FO20,260^A0N10,50^FD102 GR^FS
^PQ1
^XZ
^XA
^PW800                           
^LH0,0
^FO20,20^A0N10,50^FD47^FS
^FO60,30^A0N10,30^FD - MIE^FS
^FO120,30^A0N10,30^FD - 19^FS
^FO20,70^A0N10,40^FDALMER^FS
^FO20,170^A0N10,40^FDROSA^FS
^FO270,30^A0N10,30^FD BL: 15^FS
^FO20,120^A0N10,40^FDCAT. TOX:N.A.^FS
^FO20,220^A0N10,40^FDINEX A^FS
^FO20,260^A0N10,50^FD184 GR^FS
^PQ1
^XZ
^XA
^PW800                           
^LH0,0
^FO20,20^A0N10,50^FD47^FS
^FO60,30^A0N10,30^FD - MIE^FS
^FO120,30^A0N10,30^FD - 18^FS
^FO20,70^A0N10,40^FDALMER^FS
^FO20,170^A0N10,40^FDROSA^FS
^FO270,30^A0N10,30^FD BL: 13^FS
^FO20,120^A0N10,40^FDCAT. TOX:N.A.^FS
^FO20,220^A0N10,40^FDINEX A^FS
^FO20,260^A0N10,50^FD94 GR^FS
^PQ1
^XZ
^XA
^PW800                           
^LH0,0
^FO20,20^A0N10,50^FD47^FS
^FO60,30^A0N10,30^FD - MIE^FS
^FO120,30^A0N10,30^FD - 17^FS
^FO20,70^A0N10,40^FDSANTA HELENA^FS
^FO20,170^A0N10,40^FDROSA^FS
^FO270,30^A0N10,30^FD BL: 9^FS
^FO20,120^A0N10,40^FDCAT. TOX:IV^FS
^FO20,220^A0N10,40^FDHIPOTENSOR SYS LINEAL^FS
^FO20,260^A0N10,50^FD250 GR^FS
^PQ1
^XZ
^XA
^PW800                           
^LH0,0
^FO20,20^A0N10,50^FD47^FS
^FO60,30^A0N10,30^FD - MIE^FS
^FO120,30^A0N10,30^FD - 16^FS
^FO20,70^A0N10,40^FDSANTA HELENA^FS
^FO20,170^A0N10,40^FDROSA^FS
^FO270,30^A0N10,30^FD BL: 9^FS
^FO20,120^A0N10,40^FDCAT. TOX:IV^FS
^FO20,220^A0N10,40^FDHIPOTENSOR SYS LINEAL^FS
^FO20,260^A0N10,50^FD176 GR^FS
^PQ1
^XZ
^XA
^PW800                           
^LH0,0
^FO20,20^A0N10,50^FD47^FS
^FO60,30^A0N10,30^FD - MIE^FS
^FO120,30^A0N10,30^FD - 15^FS
^FO20,70^A0N10,40^FDSANTA HELENA^FS
^FO20,170^A0N10,40^FDROSA^FS
^FO270,30^A0N10,30^FD BL: 7^FS
^FO20,120^A0N10,40^FDCAT. TOX:IV^FS
^FO20,220^A0N10,40^FDHIPOTENSOR SYS LINEAL^FS
^FO20,260^A0N10,50^FD250 GR^FS
^PQ1
^XZ
^XA
^PW800                           
^LH0,0
^FO20,20^A0N10,50^FD47^FS
^FO60,30^A0N10,30^FD - MIE^FS
^FO120,30^A0N10,30^FD - 14^FS
^FO20,70^A0N10,40^FDSANTA HELENA^FS
^FO20,170^A0N10,40^FDROSA^FS
^FO270,30^A0N10,30^FD BL: 7^FS
^FO20,120^A0N10,40^FDCAT. TOX:IV^FS
^FO20,220^A0N10,40^FDHIPOTENSOR SYS LINEAL^FS
^FO20,260^A0N10,50^FD250 GR^FS
^PQ1
^XZ
^XA
^PW800                           
^LH0,0
^FO20,20^A0N10,50^FD47^FS
^FO60,30^A0N10,30^FD - MIE^FS
^FO120,30^A0N10,30^FD - 13^FS
^FO20,70^A0N10,40^FDSANTA HELENA^FS
^FO20,170^A0N10,40^FDROSA^FS
^FO270,30^A0N10,30^FD BL: 7^FS
^FO20,120^A0N10,40^FDCAT. TOX:IV^FS
^FO20,220^A0N10,40^FDHIPOTENSOR SYS LINEAL^FS
^FO20,260^A0N10,50^FD12 GR^FS
^PQ1
^XZ
^XA
^PW800                           
^LH0,0
^FO20,20^A0N10,50^FD47^FS
^FO60,30^A0N10,30^FD - MIE^FS
^FO120,30^A0N10,30^FD - 12^FS
^FO20,70^A0N10,40^FDSANTA HELENA^FS
^FO20,170^A0N10,40^FDROSA^FS
^FO270,30^A0N10,30^FD BL: 2^FS
^FO20,120^A0N10,40^FDCAT. TOX:IV^FS
^FO20,220^A0N10,40^FDHIPOTENSOR SYS LINEAL^FS
^FO20,260^A0N10,50^FD250 GR^FS
^PQ1
^XZ
^XA
^PW800                           
^LH0,0
^FO20,20^A0N10,50^FD47^FS
^FO60,30^A0N10,30^FD - MIE^FS
^FO120,30^A0N10,30^FD - 11^FS
^FO20,70^A0N10,40^FDSANTA HELENA^FS
^FO20,170^A0N10,40^FDROSA^FS
^FO270,30^A0N10,30^FD BL: 2^FS
^FO20,120^A0N10,40^FDCAT. TOX:IV^FS
^FO20,220^A0N10,40^FDHIPOTENSOR SYS LINEAL^FS
^FO20,260^A0N10,50^FD216 GR^FS
^PQ1
^XZ
^XA
^PW800                           
^LH0,0
^FO20,20^A0N10,50^FD47^FS
^FO60,30^A0N10,30^FD - MIE^FS
^FO120,30^A0N10,30^FD - 10^FS
^FO20,70^A0N10,40^FDSANTA HELENA^FS
^FO20,170^A0N10,40^FDROSA^FS
^FO270,30^A0N10,30^FD BL: 1A^FS
^FO20,120^A0N10,40^FDCAT. TOX:IV^FS
^FO20,220^A0N10,40^FDHIPOTENSOR SYS LINEAL^FS
^FO20,260^A0N10,50^FD110 GR^FS
^PQ1
^XZ
^XA
^PW800                           
^LH0,0
^FO20,20^A0N10,50^FD47^FS
^FO60,30^A0N10,30^FD - MIE^FS
^FO120,30^A0N10,30^FD - 9^FS
^FO20,70^A0N10,40^FDSANTA HELENA^FS
^FO20,170^A0N10,40^FDROSA^FS
^FO270,30^A0N10,30^FD BL: 10^FS
^FO20,120^A0N10,40^FDCAT. TOX:IV^FS
^FO20,220^A0N10,40^FDHIPOTENSOR SYS LINEAL^FS
^FO20,260^A0N10,50^FD250 GR^FS
^PQ1
^XZ
^XA
^PW800                           
^LH0,0
^FO20,20^A0N10,50^FD47^FS
^FO60,30^A0N10,30^FD - MIE^FS
^FO120,30^A0N10,30^FD - 8^FS
^FO20,70^A0N10,40^FDSANTA HELENA^FS
^FO20,170^A0N10,40^FDROSA^FS
^FO270,30^A0N10,30^FD BL: 10^FS
^FO20,120^A0N10,40^FDCAT. TOX:IV^FS
^FO20,220^A0N10,40^FDHIPOTENSOR SYS LINEAL^FS
^FO20,260^A0N10,50^FD200 GR^FS
^PQ1
^XZ
^XA
^PW800                           
^LH0,0
^FO20,20^A0N10,50^FD47^FS
^FO60,30^A0N10,30^FD - MIE^FS
^FO120,30^A0N10,30^FD - 7^FS
^FO20,70^A0N10,40^FDSANTA HELENA^FS
^FO20,170^A0N10,40^FDROSA^FS
^FO270,30^A0N10,30^FD BL: 0^FS
^FO20,120^A0N10,40^FDCAT. TOX:IV^FS
^FO20,220^A0N10,40^FDHIPOTENSOR SYS LINEAL^FS
^FO20,260^A0N10,50^FD250 GR^FS
^PQ1
^XZ
^XA
^PW800                           
^LH0,0
^FO20,20^A0N10,50^FD47^FS
^FO60,30^A0N10,30^FD - MIE^FS
^FO120,30^A0N10,30^FD - 6^FS
^FO20,70^A0N10,40^FDSANTA HELENA^FS
^FO20,170^A0N10,40^FDROSA^FS
^FO270,30^A0N10,30^FD BL: 0^FS
^FO20,120^A0N10,40^FDCAT. TOX:IV^FS
^FO20,220^A0N10,40^FDHIPOTENSOR SYS LINEAL^FS
^FO20,260^A0N10,50^FD25 GR^FS
^PQ1
^XZ
^XA
^PW800                           
^LH0,0
^FO20,20^A0N10,50^FD47^FS
^FO60,30^A0N10,30^FD - MIE^FS
^FO120,30^A0N10,30^FD - 5^FS
^FO20,70^A0N10,40^FDALMER^FS
^FO20,170^A0N10,40^FDROSA^FS
^FO270,30^A0N10,30^FD BL: 11^FS
^FO20,120^A0N10,40^FDCAT. TOX:N.A.^FS
^FO20,220^A0N10,40^FDCT 500^FS
^FO20,260^A0N10,50^FD1050 GR^FS
^PQ1
^XZ
^XA
^PW800                           
^LH0,0
^FO20,20^A0N10,50^FD47^FS
^FO60,30^A0N10,30^FD - MIE^FS
^FO120,30^A0N10,30^FD - 4^FS
^FO20,70^A0N10,40^FDALMER^FS
^FO20,170^A0N10,40^FDROSA^FS
^FO270,30^A0N10,30^FD BL: 11^FS
^FO20,120^A0N10,40^FDCAT. TOX:N.A.^FS
^FO20,220^A0N10,40^FDCT 500^FS
^FO20,260^A0N10,50^FD34 GR^FS
^PQ1
^XZ
^XA
^PW800                           
^LH0,0
^FO20,20^A0N10,50^FD47^FS
^FO60,30^A0N10,30^FD - MIE^FS
^FO120,30^A0N10,30^FD - 3^FS
^FO20,70^A0N10,40^FDALMER^FS
^FO20,170^A0N10,40^FDROSA^FS
^FO270,30^A0N10,30^FD BL: 5^FS
^FO20,120^A0N10,40^FDCAT. TOX:N.A^FS
^FO20,220^A0N10,40^FDCITROEMULSION^FS
^FO20,260^A0N10,50^FD2000 GR^FS
^PQ1
^XZ
^XA
^PW800                           
^LH0,0
^FO20,20^A0N10,50^FD47^FS
^FO60,30^A0N10,30^FD - MIE^FS
^FO120,30^A0N10,30^FD - 2^FS
^FO20,70^A0N10,40^FDALMER^FS
^FO20,170^A0N10,40^FDROSA^FS
^FO270,30^A0N10,30^FD BL: 5^FS
^FO20,120^A0N10,40^FDCAT. TOX:N.A^FS
^FO20,220^A0N10,40^FDCITROEMULSION^FS
^FO20,260^A0N10,50^FD472 GR^FS
^PQ1
^XZ
^XA
^PW800                           
^LH0,0
^FO20,20^A0N10,50^FD47^FS
^FO60,30^A0N10,30^FD - MIE^FS
^FO120,30^A0N10,30^FD - 1^FS
^FO20,70^A0N10,40^FDSANTA HELENA^FS
^FO20,170^A0N10,40^FDROSA^FS
^FO270,30^A0N10,30^FD BL: 1A^FS
^FO20,120^A0N10,40^FDCAT. TOX:III^FS
^FO20,220^A0N10,40^FDACUAFIN^FS
^FO20,260^A0N10,50^FD484 GR^FS
^PQ1
^XZ
